Fit an estimator and return cohort-by-time effect cells — nabs_effect_cells • nonabsdid
…
    Examples

if (requireNamespace("fect", quietly = TRUE)) {
  set.seed(1)
  panel <- expand.grid(id = 1:80, t = 1:12)
  onset <- c(`1` = 4, `2` = 6, `3` = 8)[as.character(panel$id %% 4)]
  panel$d <- as.integer(!is.na(onset) & panel$t >= onset)
  panel$y <- 0.2 * panel$t + 0.4 * panel$d + rnorm(nrow(panel))
  res <- nabs_effect_cells(panel, outcome = "y", treatment = "d",
                           unit = "id", time = "t", method = "FE",
                           nboots = 50)
  res$cells
}
#> # <nabs_effect_cell_tbl>: 21 cells, 3 cohorts, methods: "FE"
#> # A tibble: 21 × 12
#>    cohort event_time calendar_time estimate std.error conf.low conf.high     n
#>     <int>      <int>         <int>    <dbl>     <dbl>    <dbl>     <dbl> <int>
#>  1      4          0             4    0.461     0.211  -0.299      0.500    20
#>  2      4          1             5    0.488     0.184  -0.279      0.418    20
#>  3      4          2             6    1.09      0.211  -0.0659     0.626    20
#>  4      4          3             7    0.427     0.275  -0.281      0.711    20
#>  5      4          4             8    0.424     0.235  -0.259      0.561    20
#>  6      4          5             9    0.512     0.334  -0.0948     1.04     20
#>  7      4          6            10    0.715     0.299  -0.337      0.735    20
#>  8      4          7            11    0.311     0.307  -0.562      0.596    20
#>  9      4          8            12    0.457     0.312  -0.268      0.952    20
#> 10      6          0             6    0.406     0.236   0.119      0.907    20
#> # ℹ 11 more rows
#> # ℹ 4 more variables: window <chr>, method <chr>, outcome <chr>,
#> #   se_method <chr>
…
